Homework 3
…
Predictions.all<-Predictions.all %>% left_join(full.test.dat %>% 
                                                 select(Date,Hour,Predictions) %>% 
                                                 rename(fusedlasso=Predictions),by=c("Date","Hour"))
mape_res<-mape_fnc(actual = full.test.dat$Consumption,prediction = full.test.dat$Predictions)
print(paste0("Total MAPE is ",round(mape_res,2)," %"))

## [1] "Total MAPE is 3.34 %"

chosen.lambdas

## # A tibble: 24 x 2
##    lambda1 lambda2
##      <dbl>   <dbl>
##  1   100       0.5
##  2     0.5   100  
##  3   100     100  
##  4   100       0.5
##  5   100     100  
##  6     0.5   100  
##  7   100     100  
##  8     0.5     0.5
##  9   100       0.5
## 10   100     100  
## # ... with 14 more rows
…
